Currency exchange rate for GBP - at 2019-10-17T21:56:43+01:00
CAD - 1.6863196684
HKD - 10.0381160755
ISK - 159.4887148779
PHP - 65.6621372639
DKK - 8.6028327959
HUF - 381.8401658222
CZK - 29.5635651773
GBP - 1.0
RON - 5.4759327499
SEK - 12.4487563335
IDR - 18116.8470750806
INR - 91.06229848
BRL - 5.323583602
RUB - 81.917434362
HRK - 8.5703592814
JPY - 139.1179180101
THB - 38.7943344081
CHF - 1.2656609857
EUR - 1.1515430677
MYR - 5.3481114694
BGN - 2.2521879318
TRY - 7.5460617227
CNY - 9.0576923077
NOK - 11.7371027176
NZD - 2.0225702441
ZAR - 19.0332795947
USD - 1.2797098111
MXN - 24.5781897743
SGD - 1.747005988
AUD - 1.8763242745
ILS - 4.5308613542
KRW - 1508.7286964532
PLN - 4.9349378167
